%YAML 1.1
%TAG !u! tag:unity3d.com,2011:
--- !u!114 &11400000
MonoBehaviour:
  m_ObjectHideFlags: 0
  m_CorrespondingSourceObject: {fileID: 0}
  m_PrefabInstance: {fileID: 0}
  m_PrefabAsset: {fileID: 0}
  m_GameObject: {fileID: 0}
  m_Enabled: 1
  m_EditorHideFlags: 0
  m_Script: {fileID: 11500000, guid: cc4d7919205c64863902c56275d19bf9, type: 3}
  m_Name: BallSettings
  m_EditorClassIdentifier: 
  minSpeed: 150
  maxSpeed: 250
  minSize: 0.15
  maxSize: 0.3
