[api-updater (non-obsolete-error-filter)] 31.05.2021 1:12:22 : Starting /Applications/Unity/Hub/Editor/2020.3.10f1/Unity.app/Contents/Tools/ScriptUpdater/APIUpdater.NonObsoleteApiUpdaterDetector.exe
[api-updater (non-obsolete-error-filter)] 
----------------------------------
jit/startup time      : 130,231ms
moved types parse time: 50ms
candidates parse time : 14ms
C# parse time         : 300ms
candidates check time : 49ms
console write time    : 0ms

[api-updater (non-obsolete-error-filter)] 31.05.2021 1:15:08 : Starting /Applications/Unity/Hub/Editor/2020.3.10f1/Unity.app/Contents/Tools/ScriptUpdater/APIUpdater.NonObsoleteApiUpdaterDetector.exe
[api-updater (non-obsolete-error-filter)] 
----------------------------------
jit/startup time      : 125,281ms
moved types parse time: 54ms
candidates parse time : 0ms
C# parse time         : 285ms
candidates check time : 50ms
console write time    : 0ms

